%YAML 1.1
%TAG !u! tag:unity3d.com,2011:
--- !u!114 &11400000
MonoBehaviour:
  m_ObjectHideFlags: 0
  m_CorrespondingSourceObject: {fileID: 0}
  m_PrefabInstance: {fileID: 0}
  m_PrefabAsset: {fileID: 0}
  m_GameObject: {fileID: 0}
  m_Enabled: 1
  m_EditorHideFlags: 0
  m_Script: {fileID: 11500000, guid: 4cfe1df7ed391a24fbe2a2d275e81b06, type: 3}
  m_Name: PalmOpen
  m_EditorClassIdentifier: 
  _shapeName: Palm Open
  _thumbFeatureConfigs:
    _value:
    - _mode: 0
      _feature: 1
      _state: 3
    - _mode: 0
      _feature: 0
      _state: 0
  _indexFeatureConfigs:
    _value:
    - _mode: 0
      _feature: 0
      _state: 0
  _middleFeatureConfigs:
    _value:
    - _mode: 0
      _feature: 0
      _state: 0
  _ringFeatureConfigs:
    _value:
    - _mode: 0
      _feature: 0
      _state: 0
  _pinkyFeatureConfigs:
    _value:
    - _mode: 0
      _feature: 0
      _state: 0
