%YAML 1.1
%TAG !u! tag:unity3d.com,2011:
--- !u!29 &1
OcclusionCullingSettings:
  m_ObjectHideFlags: 0
  serializedVersion: 2
  m_OcclusionBakeSettings:
    smallestOccluder: 5
    smallestHole: 0.25
    backfaceThreshold: 100
  m_SceneGUID: 00000000000000000000000000000000
  m_OcclusionCullingData: {fileID: 0}
--- !u!104 &2
RenderSettings:
  m_ObjectHideFlags: 0
  serializedVersion: 9
  m_Fog: 0
  m_FogColor: {r: 0.5, g: 0.5, b: 0.5, a: 1}
  m_FogMode: 3
  m_FogDensity: 0.01
  m_LinearFogStart: 0
  m_LinearFogEnd: 300
  m_AmbientSkyColor: {r: 0.212, g: 0.227, b: 0.259, a: 1}
  m_AmbientEquatorColor: {r: 0.114, g: 0.125, b: 0.133, a: 1}
  m_AmbientGroundColor: {r: 0.047, g: 0.043, b: 0.035, a: 1}
  m_AmbientIntensity: 1
  m_AmbientMode: 0
  m_SubtractiveShadowColor: {r: 0.42, g: 0.478, b: 0.627, a: 1}
  m_SkyboxMaterial: {fileID: 10304, guid: 0000000000000000f000000000000000, type: 0}
  m_HaloStrength: 0.5
  m_FlareStrength: 1
  m_FlareFadeSpeed: 3
  m_HaloTexture: {fileID: 0}
  m_SpotCookie: {fileID: 10001, guid: 0000000000000000e000000000000000, type: 0}
  m_DefaultReflectionMode: 0
  m_DefaultReflectionResolution: 128
  m_ReflectionBounces: 1
  m_ReflectionIntensity: 1
  m_CustomReflection: {fileID: 0}
  m_Sun: {fileID: 0}
  m_IndirectSpecularColor: {r: 0.18028378, g: 0.22571412, b: 0.30692285, a: 1}
  m_UseRadianceAmbientProbe: 0
--- !u!157 &3
LightmapSettings:
  m_ObjectHideFlags: 0
  serializedVersion: 12
  m_GIWorkflowMode: 0
  m_GISettings:
    serializedVersion: 2
    m_BounceScale: 1
    m_IndirectOutputScale: 1
    m_AlbedoBoost: 1
    m_EnvironmentLightingMode: 0
    m_EnableBakedLightmaps: 1
    m_EnableRealtimeLightmaps: 1
  m_LightmapEditorSettings:
    serializedVersion: 12
    m_Resolution: 2
    m_BakeResolution: 40
    m_AtlasSize: 1024
    m_AO: 0
    m_AOMaxDistance: 1
    m_CompAOExponent: 0
    m_CompAOExponentDirect: 0
    m_ExtractAmbientOcclusion: 0
    m_Padding: 2
    m_LightmapParameters: {fileID: 0}
    m_LightmapsBakeMode: 1
    m_TextureCompression: 1
    m_FinalGather: 0
    m_FinalGatherFiltering: 1
    m_FinalGatherRayCount: 1024
    m_ReflectionCompression: 2
    m_MixedBakeMode: 1
    m_BakeBackend: 0
    m_PVRSampling: 1
    m_PVRDirectSampleCount: 32
    m_PVRSampleCount: 500
    m_PVRBounces: 2
    m_PVREnvironmentSampleCount: 500
    m_PVREnvironmentReferencePointCount: 2048
    m_PVRFilteringMode: 0
    m_PVRDenoiserTypeDirect: 0
    m_PVRDenoiserTypeIndirect: 0
    m_PVRDenoiserTypeAO: 0
    m_PVRFilterTypeDirect: 0
    m_PVRFilterTypeIndirect: 0
    m_PVRFilterTypeAO: 0
    m_PVREnvironmentMIS: 0
    m_PVRCulling: 1
    m_PVRFilteringGaussRadiusDirect: 1
    m_PVRFilteringGaussRadiusIndirect: 5
    m_PVRFilteringGaussRadiusAO: 2
    m_PVRFilteringAtrousPositionSigmaDirect: 0.5
    m_PVRFilteringAtrousPositionSigmaIndirect: 2
    m_PVRFilteringAtrousPositionSigmaAO: 1
    m_ExportTrainingData: 0
    m_TrainingDataDestination: TrainingData
    m_LightProbeSampleCountMultiplier: 4
  m_LightingDataAsset: {fileID: 0}
  m_LightingSettings: {fileID: 4890085278179872738, guid: f02ef3b284ed7d242b6642634dbb1295,
    type: 2}
--- !u!196 &4
NavMeshSettings:
  serializedVersion: 2
  m_ObjectHideFlags: 0
  m_BuildSettings:
    serializedVersion: 2
    agentTypeID: 0
    agentRadius: 0.5
    agentHeight: 2
    agentSlope: 45
    agentClimb: 0.4
    ledgeDropHeight: 0
    maxJumpAcrossDistance: 0
    minRegionArea: 2
    manualCellSize: 0
    cellSize: 0.16666667
    manualTileSize: 0
    tileSize: 256
    accuratePlacement: 0
    maxJobWorkers: 0
    preserveTilesOutsideBounds: 0
    debug:
      m_Flags: 0
  m_NavMeshData: {fileID: 0}
--- !u!1001 &7611566
PrefabInstance:
  m_ObjectHideFlags: 0
  serializedVersion: 2
  m_Modification:
    m_TransformParent: {fileID: 1594308570}
    m_Modifications:
    - target: {fileID: 488160, guid: d9809c5e8418bb047bf2c8ba1d1a2cec, type: 3}
      propertyPath: m_RootOrder
      value: 3
      objectReference: {fileID: 0}
    - target: {fileID: 488160, guid: d9809c5e8418bb047bf2c8ba1d1a2cec, type: 3}
      propertyPath: m_LocalPosition.x
      value: 0
      objectReference: {fileID: 0}
    - target: {fileID: 488160, guid: d9809c5e8418bb047bf2c8ba1d1a2cec, type: 3}
      propertyPath: m_LocalPosition.y
      value: 0
      objectReference: {fileID: 0}
    - target: {fileID: 488160, guid: d9809c5e8418bb047bf2c8ba1d1a2cec, type: 3}
      propertyPath: m_LocalPosition.z
      value: 0
      objectReference: {fileID: 0}
    - target: {fileID: 488160, guid: d9809c5e8418bb047bf2c8ba1d1a2cec, type: 3}
      propertyPath: m_LocalRotation.w
      value: 1
      objectReference: {fileID: 0}
    - target: {fileID: 488160, guid: d9809c5e8418bb047bf2c8ba1d1a2cec, type: 3}
      propertyPath: m_LocalRotation.x
      value: -0
      objectReference: {fileID: 0}
    - target: {fileID: 488160, guid: d9809c5e8418bb047bf2c8ba1d1a2cec, type: 3}
      propertyPath: m_LocalRotation.y
      value: -0
      objectReference: {fileID: 0}
    - target: {fileID: 488160, guid: d9809c5e8418bb047bf2c8ba1d1a2cec, type: 3}
      propertyPath: m_LocalRotation.z
      value: -0
      objectReference: {fileID: 0}
    - target: {fileID: 11479374, guid: d9809c5e8418bb047bf2c8ba1d1a2cec, type: 3}
      propertyPath: m_controller
      value: 16777216
      objectReference: {fileID: 0}
    m_RemovedComponents: []
  m_SourcePrefab: {fileID: 100100000, guid: d9809c5e8418bb047bf2c8ba1d1a2cec, type: 3}
--- !u!4 &7611567 stripped
Transform:
  m_CorrespondingSourceObject: {fileID: 488160, guid: d9809c5e8418bb047bf2c8ba1d1a2cec,
    type: 3}
  m_PrefabInstance: {fileID: 7611566}
  m_PrefabAsset: {fileID: 0}
--- !u!1 &265337587
GameObject:
  m_ObjectHideFlags: 0
  m_CorrespondingSourceObject: {fileID: 0}
  m_PrefabInstance: {fileID: 0}
  m_PrefabAsset: {fileID: 0}
  serializedVersion: 6
  m_Component:
  - component: {fileID: 265337588}
  - component: {fileID: 265337590}
  - component: {fileID: 265337589}
  - component: {fileID: 265337591}
  m_Layer: 5
  m_Name: Text
  m_TagString: Untagged
  m_Icon: {fileID: 0}
  m_NavMeshLayer: 0
  m_StaticEditorFlags: 0
  m_IsActive: 1
--- !u!224 &265337588
RectTransform:
  m_ObjectHideFlags: 0
  m_CorrespondingSourceObject: {fileID: 0}
  m_PrefabInstance: {fileID: 0}
  m_PrefabAsset: {fileID: 0}
  m_GameObject: {fileID: 265337587}
  m_LocalRotation: {x: 0, y: 0, z: 0, w: 1}
  m_LocalPosition: {x: 0, y: 0, z: 0}
  m_LocalScale: {x: 0.1, y: 0.1, z: 0.1}
  m_ConstrainProportionsScale: 0
  m_Children: []
  m_Father: {fileID: 2100857862}
  m_RootOrder: 1
  m_LocalEulerAnglesHint: {x: 0, y: 0, z: 0}
  m_AnchorMin: {x: 0.5, y: 0.5}
  m_AnchorMax: {x: 0.5, y: 0.5}
  m_AnchoredPosition: {x: 0, y: 0}
  m_SizeDelta: {x: 250, y: 700}
  m_Pivot: {x: 0.5, y: 0.5}
--- !u!114 &265337589
MonoBehaviour:
  m_ObjectHideFlags: 0
  m_CorrespondingSourceObject: {fileID: 0}
  m_PrefabInstance: {fileID: 0}
  m_PrefabAsset: {fileID: 0}
  m_GameObject: {fileID: 265337587}
  m_Enabled: 1
  m_EditorHideFlags: 0
  m_Script: {fileID: 11500000, guid: 5f7201a12d95ffc409449d95f23cf332, type: 3}
  m_Name: 
  m_EditorClassIdentifier: 
  m_Material: {fileID: 0}
  m_Color: {r: 0.19607843, g: 0.19607843, b: 0.19607843, a: 1}
  m_RaycastTarget: 1
  m_RaycastPadding: {x: 0, y: 0, z: 0, w: 0}
  m_Maskable: 1
  m_OnCullStateChanged:
    m_PersistentCalls:
      m_Calls: []
  m_FontData:
    m_Font: {fileID: 10102, guid: 0000000000000000e000000000000000, type: 0}
    m_FontSize: 14
    m_FontStyle: 0
    m_BestFit: 0
    m_MinSize: 1
    m_MaxSize: 40
    m_Alignment: 3
    m_AlignByGeometry: 0
    m_RichText: 1
    m_HorizontalOverflow: 0
    m_VerticalOverflow: 0
    m_LineSpacing: 1
  m_Text: 
--- !u!222 &265337590
CanvasRenderer:
  m_ObjectHideFlags: 0
  m_CorrespondingSourceObject: {fileID: 0}
  m_PrefabInstance: {fileID: 0}
  m_PrefabAsset: {fileID: 0}
  m_GameObject: {fileID: 265337587}
  m_CullTransparentMesh: 0
--- !u!114 &265337591
MonoBehaviour:
  m_ObjectHideFlags: 0
  m_CorrespondingSourceObject: {fileID: 0}
  m_PrefabInstance: {fileID: 0}
  m_PrefabAsset: {fileID: 0}
  m_GameObject: {fileID: 265337587}
  m_Enabled: 1
  m_EditorHideFlags: 0
  m_Script: {fileID: 11500000, guid: 12a1e4a79af8fe849b7a2769ff0d3886, type: 3}
  m_Name: 
  m_EditorClassIdentifier: 
  uiText: {fileID: 265337589}
--- !u!4 &312666934 stripped
Transform:
  m_CorrespondingSourceObject: {fileID: 4453513310108136, guid: 835e735ca71bf78459fb2cababd74112,
    type: 3}
  m_PrefabInstance: {fileID: 680101560}
  m_PrefabAsset: {fileID: 0}
--- !u!1 &358702056
GameObject:
  m_ObjectHideFlags: 0
  m_CorrespondingSourceObject: {fileID: 100012, guid: ce816f2e6abb0504092c23ed9b970dfd,
    type: 3}
  m_PrefabInstance: {fileID: 0}
  m_PrefabAsset: {fileID: 0}
  serializedVersion: 6
  m_Component:
  - component: {fileID: 358702057}
  - component: {fileID: 358702060}
  - component: {fileID: 358702059}
  - component: {fileID: 358702058}
  m_Layer: 0
  m_Name: CenterEyeAnchor
  m_TagString: MainCamera
  m_Icon: {fileID: 0}
  m_NavMeshLayer: 0
  m_StaticEditorFlags: 0
  m_IsActive: 1
--- !u!4 &358702057
Transform:
  m_ObjectHideFlags: 0
  m_CorrespondingSourceObject: {fileID: 400012, guid: ce816f2e6abb0504092c23ed9b970dfd,
    type: 3}
  m_PrefabInstance: {fileID: 0}
  m_PrefabAsset: {fileID: 0}
  m_GameObject: {fileID: 358702056}
  m_LocalRotation: {x: 0, y: 0, z: 0, w: 1}
  m_LocalPosition: {x: 0, y: 0, z: 0}
  m_LocalScale: {x: 1, y: 1, z: 1}
  m_ConstrainProportionsScale: 0
  m_Children:
  - {fileID: 2100857862}
  m_Father: {fileID: 863221866}
  m_RootOrder: 1
  m_LocalEulerAnglesHint: {x: 0, y: 0, z: 0}
--- !u!114 &358702058
MonoBehaviour:
  m_ObjectHideFlags: 0
  m_CorrespondingSourceObject: {fileID: 11414578, guid: ce816f2e6abb0504092c23ed9b970dfd,
    type: 3}
  m_PrefabInstance: {fileID: 0}
  m_PrefabAsset: {fileID: 0}
  m_GameObject: {fileID: 358702056}
  m_Enabled: 1
  m_EditorHideFlags: 0
  m_Script: {fileID: 11500000, guid: df8e1d778abf442e4bec449c360e9e1c, type: 3}
  m_Name: 
  m_EditorClassIdentifier: 
  fadeTime: 2
  fadeColor: {r: 0.01, g: 0.01, b: 0.01, a: 1}
  fadeOnStart: 1
  renderQueue: 5000
--- !u!20 &358702059
Camera:
  m_ObjectHideFlags: 0
  m_CorrespondingSourceObject: {fileID: 2015248, guid: ce816f2e6abb0504092c23ed9b970dfd,
    type: 3}
  m_PrefabInstance: {fileID: 0}
  m_PrefabAsset: {fileID: 0}
  m_GameObject: {fileID: 358702056}
  m_Enabled: 1
  serializedVersion: 2
  m_ClearFlags: 1
  m_BackGroundColor: {r: 0.19215687, g: 0.3019608, b: 0.4745098, a: 0.019607844}
  m_projectionMatrixMode: 1
  m_GateFitMode: 2
  m_FOVAxisMode: 0
  m_SensorSize: {x: 36, y: 24}
  m_LensShift: {x: 0, y: 0}
  m_FocalLength: 50
  m_NormalizedViewPortRect:
    serializedVersion: 2
    x: 0
    y: 0
    width: 1
    height: 1
  near clip plane: 0.1
  far clip plane: 1000
  field of view: 90
  orthographic: 0
  orthographic size: 5
  m_Depth: 0
  m_CullingMask:
    serializedVersion: 2
    m_Bits: 4294967295
  m_RenderingPath: 1
  m_TargetTexture: {fileID: 0}
  m_TargetDisplay: 0
  m_TargetEye: 3
  m_HDR: 0
  m_AllowMSAA: 1
  m_AllowDynamicResolution: 0
  m_ForceIntoRT: 0
  m_OcclusionCulling: 1
  m_StereoConvergence: 10
  m_StereoSeparation: 0.022
--- !u!81 &358702060
AudioListener:
  m_ObjectHideFlags: 0
  m_CorrespondingSourceObject: {fileID: 8100000, guid: ce816f2e6abb0504092c23ed9b970dfd,
    type: 3}
  m_PrefabInstance: {fileID: 0}
  m_PrefabAsset: {fileID: 0}
  m_GameObject: {fileID: 358702056}
  m_Enabled: 1
--- !u!1 &432959205
GameObject:
  m_ObjectHideFlags: 0
  m_CorrespondingSourceObject: {fileID: 168962, guid: ce816f2e6abb0504092c23ed9b970dfd,
    type: 3}
  m_PrefabInstance: {fileID: 0}
  m_PrefabAsset: {fileID: 0}
  serializedVersion: 6
  m_Component:
  - component: {fileID: 1594308570}
  m_Layer: 0
  m_Name: LeftHandAnchor
  m_TagString: Untagged
  m_Icon: {fileID: 0}
  m_NavMeshLayer: 0
  m_StaticEditorFlags: 0
  m_IsActive: 1
--- !u!1 &654211503
GameObject:
  m_ObjectHideFlags: 0
  m_CorrespondingSourceObject: {fileID: 134650, guid: ce816f2e6abb0504092c23ed9b970dfd,
    type: 3}
  m_PrefabInstance: {fileID: 0}
  m_PrefabAsset: {fileID: 0}
  serializedVersion: 6
  m_Component:
  - component: {fileID: 1594308569}
  m_Layer: 0
  m_Name: RightHandAnchor
  m_TagString: Untagged
  m_Icon: {fileID: 0}
  m_NavMeshLayer: 0
  m_StaticEditorFlags: 0
  m_IsActive: 1
--- !u!1001 &680101560
PrefabInstance:
  m_ObjectHideFlags: 0
  serializedVersion: 2
  m_Modification:
    m_TransformParent: {fileID: 1594308570}
    m_Modifications:
    - target: {fileID: 1870938896605422, guid: 835e735ca71bf78459fb2cababd74112, type: 3}
      propertyPath: m_IsActive
      value: 0
      objectReference: {fileID: 0}
    - target: {fileID: 4453513310108136, guid: 835e735ca71bf78459fb2cababd74112, type: 3}
      propertyPath: m_RootOrder
      value: 0
      objectReference: {fileID: 0}
    - target: {fileID: 4453513310108136, guid: 835e735ca71bf78459fb2cababd74112, type: 3}
      propertyPath: m_LocalPosition.x
      value: 0
      objectReference: {fileID: 0}
    - target: {fileID: 4453513310108136, guid: 835e735ca71bf78459fb2cababd74112, type: 3}
      propertyPath: m_LocalPosition.y
      value: 0
      objectReference: {fileID: 0}
    - target: {fileID: 4453513310108136, guid: 835e735ca71bf78459fb2cababd74112, type: 3}
      propertyPath: m_LocalPosition.z
      value: 0
      objectReference: {fileID: 0}
    - target: {fileID: 4453513310108136, guid: 835e735ca71bf78459fb2cababd74112, type: 3}
      propertyPath: m_LocalRotation.w
      value: 1
      objectReference: {fileID: 0}
    - target: {fileID: 4453513310108136, guid: 835e735ca71bf78459fb2cababd74112, type: 3}
      propertyPath: m_LocalRotation.x
      value: 0
      objectReference: {fileID: 0}
    - target: {fileID: 4453513310108136, guid: 835e735ca71bf78459fb2cababd74112, type: 3}
      propertyPath: m_LocalRotation.y
      value: 0
      objectReference: {fileID: 0}
    - target: {fileID: 4453513310108136, guid: 835e735ca71bf78459fb2cababd74112, type: 3}
      propertyPath: m_LocalRotation.z
      value: 0
      objectReference: {fileID: 0}
    - target: {fileID: 114428879332287356, guid: 835e735ca71bf78459fb2cababd74112,
        type: 3}
      propertyPath: _pointerPoseGO
      value: 
      objectReference: {fileID: 0}
    m_RemovedComponents: []
  m_SourcePrefab: {fileID: 100100000, guid: 835e735ca71bf78459fb2cababd74112, type: 3}
--- !u!1001 &747178298
PrefabInstance:
  m_ObjectHideFlags: 0
  serializedVersion: 2
  m_Modification:
    m_TransformParent: {fileID: 1594308569}
    m_Modifications:
    - target: {fileID: 488160, guid: d9809c5e8418bb047bf2c8ba1d1a2cec, type: 3}
      propertyPath: m_RootOrder
      value: 3
      objectReference: {fileID: 0}
    - target: {fileID: 488160, guid: d9809c5e8418bb047bf2c8ba1d1a2cec, type: 3}
      propertyPath: m_LocalPosition.x
      value: 0
      objectReference: {fileID: 0}
    - target: {fileID: 488160, guid: d9809c5e8418bb047bf2c8ba1d1a2cec, type: 3}
      propertyPath: m_LocalPosition.y
      value: 0
      objectReference: {fileID: 0}
    - target: {fileID: 488160, guid: d9809c5e8418bb047bf2c8ba1d1a2cec, type: 3}
      propertyPath: m_LocalPosition.z
      value: 0
      objectReference: {fileID: 0}
    - target: {fileID: 488160, guid: d9809c5e8418bb047bf2c8ba1d1a2cec, type: 3}
      propertyPath: m_LocalRotation.w
      value: 1
      objectReference: {fileID: 0}
    - target: {fileID: 488160, guid: d9809c5e8418bb047bf2c8ba1d1a2cec, type: 3}
      propertyPath: m_LocalRotation.x
      value: -0
      objectReference: {fileID: 0}
    - target: {fileID: 488160, guid: d9809c5e8418bb047bf2c8ba1d1a2cec, type: 3}
      propertyPath: m_LocalRotation.y
      value: -0
      objectReference: {fileID: 0}
    - target: {fileID: 488160, guid: d9809c5e8418bb047bf2c8ba1d1a2cec, type: 3}
      propertyPath: m_LocalRotation.z
      value: -0
      objectReference: {fileID: 0}
    m_RemovedComponents: []
  m_SourcePrefab: {fileID: 100100000, guid: d9809c5e8418bb047bf2c8ba1d1a2cec, type: 3}
--- !u!4 &747178299 stripped
Transform:
  m_CorrespondingSourceObject: {fileID: 488160, guid: d9809c5e8418bb047bf2c8ba1d1a2cec,
    type: 3}
  m_PrefabInstance: {fileID: 747178298}
  m_PrefabAsset: {fileID: 0}
--- !u!1 &863221865
GameObject:
  m_ObjectHideFlags: 0
  m_CorrespondingSourceObject: {fileID: 162066, guid: ce816f2e6abb0504092c23ed9b970dfd,
    type: 3}
  m_PrefabInstance: {fileID: 0}
  m_PrefabAsset: {fileID: 0}
  serializedVersion: 6
  m_Component:
  - component: {fileID: 863221866}
  m_Layer: 0
  m_Name: TrackingSpace
  m_TagString: Untagged
  m_Icon: {fileID: 0}
  m_NavMeshLayer: 0
  m_StaticEditorFlags: 0
  m_IsActive: 1
--- !u!4 &863221866
Transform:
  m_ObjectHideFlags: 0
  m_CorrespondingSourceObject: {fileID: 462066, guid: ce816f2e6abb0504092c23ed9b970dfd,
    type: 3}
  m_PrefabInstance: {fileID: 0}
  m_PrefabAsset: {fileID: 0}
  m_GameObject: {fileID: 863221865}
  m_LocalRotation: {x: 0, y: 0, z: 0, w: 1}
  m_LocalPosition: {x: 0, y: 0, z: 0}
  m_LocalScale: {x: 1, y: 1, z: 1}
  m_ConstrainProportionsScale: 0
  m_Children:
  - {fileID: 1568687149}
  - {fileID: 358702057}
  - {fileID: 1795229448}
  - {fileID: 1277714291}
  - {fileID: 1594308570}
  - {fileID: 1594308569}
  m_Father: {fileID: 1594308573}
  m_RootOrder: 0
  m_LocalEulerAnglesHint: {x: 0, y: 0, z: 0}
--- !u!4 &865681764 stripped
Transform:
  m_CorrespondingSourceObject: {fileID: 4766092344323370, guid: e201a24a09e942042b93390d0444d728,
    type: 3}
  m_PrefabInstance: {fileID: 1411483269}
  m_PrefabAsset: {fileID: 0}
--- !u!1 &1007573585
GameObject:
  m_ObjectHideFlags: 0
  m_CorrespondingSourceObject: {fileID: 0}
  m_PrefabInstance: {fileID: 0}
  m_PrefabAsset: {fileID: 0}
  serializedVersion: 6
  m_Component:
  - component: {fileID: 1007573588}
  - component: {fileID: 1007573587}
  - component: {fileID: 1007573586}
  m_Layer: 0
  m_Name: EventSystem
  m_TagString: Untagged
  m_Icon: {fileID: 0}
  m_NavMeshLayer: 0
  m_StaticEditorFlags: 0
  m_IsActive: 1
--- !u!114 &1007573586
MonoBehaviour:
  m_ObjectHideFlags: 0
  m_CorrespondingSourceObject: {fileID: 0}
  m_PrefabInstance: {fileID: 0}
  m_PrefabAsset: {fileID: 0}
  m_GameObject: {fileID: 1007573585}
  m_Enabled: 1
  m_EditorHideFlags: 0
  m_Script: {fileID: 11500000, guid: 4f231c4fb786f3946a6b90b886c48677, type: 3}
  m_Name: 
  m_EditorClassIdentifier: 
  m_HorizontalAxis: Horizontal
  m_VerticalAxis: Vertical
  m_SubmitButton: Submit
  m_CancelButton: Cancel
  m_InputActionsPerSecond: 10
  m_RepeatDelay: 0.5
  m_ForceModuleActive: 0
--- !u!114 &1007573587
MonoBehaviour:
  m_ObjectHideFlags: 0
  m_CorrespondingSourceObject: {fileID: 0}
  m_PrefabInstance: {fileID: 0}
  m_PrefabAsset: {fileID: 0}
  m_GameObject: {fileID: 1007573585}
  m_Enabled: 1
  m_EditorHideFlags: 0
  m_Script: {fileID: 11500000, guid: 76c392e42b5098c458856cdf6ecaaaa1, type: 3}
  m_Name: 
  m_EditorClassIdentifier: 
  m_FirstSelected: {fileID: 0}
  m_sendNavigationEvents: 1
  m_DragThreshold: 5
--- !u!4 &1007573588
Transform:
  m_ObjectHideFlags: 0
  m_CorrespondingSourceObject: {fileID: 0}
  m_PrefabInstance: {fileID: 0}
  m_PrefabAsset: {fileID: 0}
  m_GameObject: {fileID: 1007573585}
  m_LocalRotation: {x: 0, y: 0, z: 0, w: 1}
  m_LocalPosition: {x: 0, y: 0, z: 0}
  m_LocalScale: {x: 1, y: 1, z: 1}
  m_ConstrainProportionsScale: 0
  m_Children: []
  m_Father: {fileID: 0}
  m_RootOrder: 3
  m_LocalEulerAnglesHint: {x: 0, y: 0, z: 0}
--- !u!1001 &1008474975
PrefabInstance:
  m_ObjectHideFlags: 0
  serializedVersion: 2
  m_Modification:
    m_TransformParent: {fileID: 1594308570}
    m_Modifications:
    - target: {fileID: 4927695388962516, guid: c6a74181d4000004887343fb87b3c53a, type: 3}
      propertyPath: m_RootOrder
      value: 2
      objectReference: {fileID: 0}
    - target: {fileID: 4927695388962516, guid: c6a74181d4000004887343fb87b3c53a, type: 3}
      propertyPath: m_LocalPosition.x
      value: 0
      objectReference: {fileID: 0}
    - target: {fileID: 4927695388962516, guid: c6a74181d4000004887343fb87b3c53a, type: 3}
      propertyPath: m_LocalPosition.y
      value: 0
      objectReference: {fileID: 0}
    - target: {fileID: 4927695388962516, guid: c6a74181d4000004887343fb87b3c53a, type: 3}
      propertyPath: m_LocalPosition.z
      value: 0
      objectReference: {fileID: 0}
    - target: {fileID: 4927695388962516, guid: c6a74181d4000004887343fb87b3c53a, type: 3}
      propertyPath: m_LocalRotation.w
      value: 1
      objectReference: {fileID: 0}
    - target: {fileID: 4927695388962516, guid: c6a74181d4000004887343fb87b3c53a, type: 3}
      propertyPath: m_LocalRotation.x
      value: 0
      objectReference: {fileID: 0}
    - target: {fileID: 4927695388962516, guid: c6a74181d4000004887343fb87b3c53a, type: 3}
      propertyPath: m_LocalRotation.y
      value: 0
      objectReference: {fileID: 0}
    - target: {fileID: 4927695388962516, guid: c6a74181d4000004887343fb87b3c53a, type: 3}
      propertyPath: m_LocalRotation.z
      value: 0
      objectReference: {fileID: 0}
    - target: {fileID: 114674612155881938, guid: c6a74181d4000004887343fb87b3c53a,
        type: 3}
      propertyPath: _customBones_V2.Array.data[0]
      value: 
      objectReference: {fileID: 1008474998}
    - target: {fileID: 114674612155881938, guid: c6a74181d4000004887343fb87b3c53a,
        type: 3}
      propertyPath: _customBones_V2.Array.data[1]
      value: 
      objectReference: {fileID: 1008474999}
    - target: {fileID: 114674612155881938, guid: c6a74181d4000004887343fb87b3c53a,
        type: 3}
      propertyPath: _customBones_V2.Array.data[2]
      value: 
      objectReference: {fileID: 1008474997}
    - target: {fileID: 114674612155881938, guid: c6a74181d4000004887343fb87b3c53a,
        type: 3}
      propertyPath: _customBones_V2.Array.data[3]
      value: 
      objectReference: {fileID: 1008474996}
    - target: {fileID: 114674612155881938, guid: c6a74181d4000004887343fb87b3c53a,
        type: 3}
      propertyPath: _customBones_V2.Array.data[4]
      value: 
      objectReference: {fileID: 1008474995}
    - target: {fileID: 114674612155881938, guid: c6a74181d4000004887343fb87b3c53a,
        type: 3}
      propertyPath: _customBones_V2.Array.data[5]
      value: 
      objectReference: {fileID: 1008474993}
    - target: {fileID: 114674612155881938, guid: c6a74181d4000004887343fb87b3c53a,
        type: 3}
      propertyPath: _customBones_V2.Array.data[6]
      value: 
      objectReference: {fileID: 1008474992}
    - target: {fileID: 114674612155881938, guid: c6a74181d4000004887343fb87b3c53a,
        type: 3}
      propertyPath: _customBones_V2.Array.data[7]
      value: 
      objectReference: {fileID: 1008474991}
    - target: {fileID: 114674612155881938, guid: c6a74181d4000004887343fb87b3c53a,
        type: 3}
      propertyPath: _customBones_V2.Array.data[8]
      value: 
      objectReference: {fileID: 1008474989}
    - target: {fileID: 114674612155881938, guid: c6a74181d4000004887343fb87b3c53a,
        type: 3}
      propertyPath: _customBones_V2.Array.data[9]
      value: 
      objectReference: {fileID: 1008474988}
    - target: {fileID: 114674612155881938, guid: c6a74181d4000004887343fb87b3c53a,
        type: 3}
      propertyPath: _customBones_V2.Array.data[10]
      value: 
      objectReference: {fileID: 1008474987}
    - target: {fileID: 114674612155881938, guid: c6a74181d4000004887343fb87b3c53a,
        type: 3}
      propertyPath: _customBones_V2.Array.data[11]
      value: 
      objectReference: {fileID: 1008474985}
    - target: {fileID: 114674612155881938, guid: c6a74181d4000004887343fb87b3c53a,
        type: 3}
      propertyPath: _customBones_V2.Array.data[12]
      value: 
      objectReference: {fileID: 1008474984}
    - target: {fileID: 114674612155881938, guid: c6a74181d4000004887343fb87b3c53a,
        type: 3}
      propertyPath: _customBones_V2.Array.data[13]
      value: 
      objectReference: {fileID: 1008474983}
    - target: {fileID: 114674612155881938, guid: c6a74181d4000004887343fb87b3c53a,
        type: 3}
      propertyPath: _customBones_V2.Array.data[14]
      value: 
      objectReference: {fileID: 1008474981}
    - target: {fileID: 114674612155881938, guid: c6a74181d4000004887343fb87b3c53a,
        type: 3}
      propertyPath: _customBones_V2.Array.data[15]
      value: 
      objectReference: {fileID: 1008474980}
    - target: {fileID: 114674612155881938, guid: c6a74181d4000004887343fb87b3c53a,
        type: 3}
      propertyPath: _customBones_V2.Array.data[16]
      value: 
      objectReference: {fileID: 1008474979}
    - target: {fileID: 114674612155881938, guid: c6a74181d4000004887343fb87b3c53a,
        type: 3}
      propertyPath: _customBones_V2.Array.data[17]
      value: 
      objectReference: {fileID: 1008474978}
    - target: {fileID: 114674612155881938, guid: c6a74181d4000004887343fb87b3c53a,
        type: 3}
      propertyPath: _customBones_V2.Array.data[18]
      value: 
      objectReference: {fileID: 1008474976}
    - target: {fileID: 114674612155881938, guid: c6a74181d4000004887343fb87b3c53a,
        type: 3}
      propertyPath: _customBones_V2.Array.data[19]
      value: 
      objectReference: {fileID: 1008474994}
    - target: {fileID: 114674612155881938, guid: c6a74181d4000004887343fb87b3c53a,
        type: 3}
      propertyPath: _customBones_V2.Array.data[20]
      value: 
      objectReference: {fileID: 1008474990}
    - target: {fileID: 114674612155881938, guid: c6a74181d4000004887343fb87b3c53a,
        type: 3}
      propertyPath: _customBones_V2.Array.data[21]
      value: 
      objectReference: {fileID: 1008474986}
    - target: {fileID: 114674612155881938, guid: c6a74181d4000004887343fb87b3c53a,
        type: 3}
      propertyPath: _customBones_V2.Array.data[22]
      value: 
      objectReference: {fileID: 1008474982}
    - target: {fileID: 114674612155881938, guid: c6a74181d4000004887343fb87b3c53a,
        type: 3}
      propertyPath: _customBones_V2.Array.data[23]
      value: 
      objectReference: {fileID: 1008474977}
    m_RemovedComponents: []
  m_SourcePrefab: {fileID: 100100000, guid: c6a74181d4000004887343fb87b3c53a, type: 3}
--- !u!4 &1008474976 stripped
Transform:
  m_CorrespondingSourceObject: {fileID: 4204096449325514, guid: c6a74181d4000004887343fb87b3c53a,
    type: 3}
  m_PrefabInstance: {fileID: 1008474975}
  m_PrefabAsset: {fileID: 0}
--- !u!4 &1008474977 stripped
Transform:
  m_CorrespondingSourceObject: {fileID: 4222966581868304, guid: c6a74181d4000004887343fb87b3c53a,
    type: 3}
  m_PrefabInstance: {fileID: 1008474975}
  m_PrefabAsset: {fileID: 0}
--- !u!4 &1008474978 stripped
Transform:
  m_CorrespondingSourceObject: {fileID: 4913291532809462, guid: c6a74181d4000004887343fb87b3c53a,
    type: 3}
  m_PrefabInstance: {fileID: 1008474975}
  m_PrefabAsset: {fileID: 0}
--- !u!4 &1008474979 stripped
Transform:
  m_CorrespondingSourceObject: {fileID: 4417149081627286, guid: c6a74181d4000004887343fb87b3c53a,
    type: 3}
  m_PrefabInstance: {fileID: 1008474975}
  m_PrefabAsset: {fileID: 0}
--- !u!4 &1008474980 stripped
Transform:
  m_CorrespondingSourceObject: {fileID: 4559078275043850, guid: c6a74181d4000004887343fb87b3c53a,
    type: 3}
  m_PrefabInstance: {fileID: 1008474975}
  m_PrefabAsset: {fileID: 0}
--- !u!4 &1008474981 stripped
Transform:
  m_CorrespondingSourceObject: {fileID: 4319936315435910, guid: c6a74181d4000004887343fb87b3c53a,
    type: 3}
  m_PrefabInstance: {fileID: 1008474975}
  m_PrefabAsset: {fileID: 0}
--- !u!4 &1008474982 stripped
Transform:
  m_CorrespondingSourceObject: {fileID: 4875755424105542, guid: c6a74181d4000004887343fb87b3c53a,
    type: 3}
  m_PrefabInstance: {fileID: 1008474975}
  m_PrefabAsset: {fileID: 0}
--- !u!4 &1008474983 stripped
Transform:
  m_CorrespondingSourceObject: {fileID: 4837604885819856, guid: c6a74181d4000004887343fb87b3c53a,
    type: 3}
  m_PrefabInstance: {fileID: 1008474975}
  m_PrefabAsset: {fileID: 0}
--- !u!4 &1008474984 stripped
Transform:
  m_CorrespondingSourceObject: {fileID: 4876270575425730, guid: c6a74181d4000004887343fb87b3c53a,
    type: 3}
  m_PrefabInstance: {fileID: 1008474975}
  m_PrefabAsset: {fileID: 0}
--- !u!4 &1008474985 stripped
Transform:
  m_CorrespondingSourceObject: {fileID: 4699508361348608, guid: c6a74181d4000004887343fb87b3c53a,
    type: 3}
  m_PrefabInstance: {fileID: 1008474975}
  m_PrefabAsset: {fileID: 0}
--- !u!4 &1008474986 stripped
Transform:
  m_CorrespondingSourceObject: {fileID: 4632502700799338, guid: c6a74181d4000004887343fb87b3c53a,
    type: 3}
  m_PrefabInstance: {fileID: 1008474975}
  m_PrefabAsset: {fileID: 0}
--- !u!4 &1008474987 stripped
Transform:
  m_CorrespondingSourceObject: {fileID: 4345738514649220, guid: c6a74181d4000004887343fb87b3c53a,
    type: 3}
  m_PrefabInstance: {fileID: 1008474975}
  m_PrefabAsset: {fileID: 0}
--- !u!4 &1008474988 stripped
Transform:
  m_CorrespondingSourceObject: {fileID: 4515130557893472, guid: c6a74181d4000004887343fb87b3c53a,
    type: 3}
  m_PrefabInstance: {fileID: 1008474975}
  m_PrefabAsset: {fileID: 0}
--- !u!4 &1008474989 stripped
Transform:
  m_CorrespondingSourceObject: {fileID: 4524810560304764, guid: c6a74181d4000004887343fb87b3c53a,
    type: 3}
  m_PrefabInstance: {fileID: 1008474975}
  m_PrefabAsset: {fileID: 0}
--- !u!4 &1008474990 stripped
Transform:
  m_CorrespondingSourceObject: {fileID: 4897388692554662, guid: c6a74181d4000004887343fb87b3c53a,
    type: 3}
  m_PrefabInstance: {fileID: 1008474975}
  m_PrefabAsset: {fileID: 0}
--- !u!4 &1008474991 stripped
Transform:
  m_CorrespondingSourceObject: {fileID: 4439640941519472, guid: c6a74181d4000004887343fb87b3c53a,
    type: 3}
  m_PrefabInstance: {fileID: 1008474975}
  m_PrefabAsset: {fileID: 0}
--- !u!4 &1008474992 stripped
Transform:
  m_CorrespondingSourceObject: {fileID: 4178103343611426, guid: c6a74181d4000004887343fb87b3c53a,
    type: 3}
  m_PrefabInstance: {fileID: 1008474975}
  m_PrefabAsset: {fileID: 0}
--- !u!4 &1008474993 stripped
Transform:
  m_CorrespondingSourceObject: {fileID: 4542833751384476, guid: c6a74181d4000004887343fb87b3c53a,
    type: 3}
  m_PrefabInstance: {fileID: 1008474975}
  m_PrefabAsset: {fileID: 0}
--- !u!4 &1008474994 stripped
Transform:
  m_CorrespondingSourceObject: {fileID: 4325499800668186, guid: c6a74181d4000004887343fb87b3c53a,
    type: 3}
  m_PrefabInstance: {fileID: 1008474975}
  m_PrefabAsset: {fileID: 0}
--- !u!4 &1008474995 stripped
Transform:
  m_CorrespondingSourceObject: {fileID: 4511282706868578, guid: c6a74181d4000004887343fb87b3c53a,
    type: 3}
  m_PrefabInstance: {fileID: 1008474975}
  m_PrefabAsset: {fileID: 0}
--- !u!4 &1008474996 stripped
Transform:
  m_CorrespondingSourceObject: {fileID: 4771060497142086, guid: c6a74181d4000004887343fb87b3c53a,
    type: 3}
  m_PrefabInstance: {fileID: 1008474975}
  m_PrefabAsset: {fileID: 0}
--- !u!4 &1008474997 stripped
Transform:
  m_CorrespondingSourceObject: {fileID: 4789457035641226, guid: c6a74181d4000004887343fb87b3c53a,
    type: 3}
  m_PrefabInstance: {fileID: 1008474975}
  m_PrefabAsset: {fileID: 0}
--- !u!4 &1008474998 stripped
Transform:
  m_CorrespondingSourceObject: {fileID: 4562126893162318, guid: c6a74181d4000004887343fb87b3c53a,
    type: 3}
  m_PrefabInstance: {fileID: 1008474975}
  m_PrefabAsset: {fileID: 0}
--- !u!4 &1008474999 stripped
Transform:
  m_CorrespondingSourceObject: {fileID: 4641231825944820, guid: c6a74181d4000004887343fb87b3c53a,
    type: 3}
  m_PrefabInstance: {fileID: 1008474975}
  m_PrefabAsset: {fileID: 0}
--- !u!1 &1117748289
GameObject:
  m_ObjectHideFlags: 0
  m_CorrespondingSourceObject: {fileID: 0}
  m_PrefabInstance: {fileID: 0}
  m_PrefabAsset: {fileID: 0}
  serializedVersion: 6
  m_Component:
  - component: {fileID: 1117748290}
  - component: {fileID: 1117748292}
  - component: {fileID: 1117748291}
  m_Layer: 5
  m_Name: Panel
  m_TagString: Untagged
  m_Icon: {fileID: 0}
  m_NavMeshLayer: 0
  m_StaticEditorFlags: 0
  m_IsActive: 1
--- !u!224 &1117748290
RectTransform:
  m_ObjectHideFlags: 0
  m_CorrespondingSourceObject: {fileID: 0}
  m_PrefabInstance: {fileID: 0}
  m_PrefabAsset: {fileID: 0}
  m_GameObject: {fileID: 1117748289}
  m_LocalRotation: {x: 0, y: 0, z: 0, w: 1}
  m_LocalPosition: {x: 0, y: 0, z: 0}
  m_LocalScale: {x: 0.3, y: 0.9, z: 0.1}
  m_ConstrainProportionsScale: 0
  m_Children: []
  m_Father: {fileID: 2100857862}
  m_RootOrder: 0
  m_LocalEulerAnglesHint: {x: 0, y: 0, z: 0}
  m_AnchorMin: {x: 0, y: 0}
  m_AnchorMax: {x: 1, y: 1}
  m_AnchoredPosition: {x: 0, y: 0}
  m_SizeDelta: {x: 0, y: 0}
  m_Pivot: {x: 0.5, y: 0.5}
--- !u!114 &1117748291
MonoBehaviour:
  m_ObjectHideFlags: 0
  m_CorrespondingSourceObject: {fileID: 0}
  m_PrefabInstance: {fileID: 0}
  m_PrefabAsset: {fileID: 0}
  m_GameObject: {fileID: 1117748289}
  m_Enabled: 1
  m_EditorHideFlags: 0
  m_Script: {fileID: 11500000, guid: fe87c0e1cc204ed48ad3b37840f39efc, type: 3}
  m_Name: 
  m_EditorClassIdentifier: 
  m_Material: {fileID: 0}
  m_Color: {r: 1, g: 1, b: 1, a: 0.909}
  m_RaycastTarget: 1
  m_RaycastPadding: {x: 0, y: 0, z: 0, w: 0}
  m_Maskable: 1
  m_OnCullStateChanged:
    m_PersistentCalls:
      m_Calls: []
  m_Sprite: {fileID: 10907, guid: 0000000000000000f000000000000000, type: 0}
  m_Type: 1
  m_PreserveAspect: 0
  m_FillCenter: 1
  m_FillMethod: 4
  m_FillAmount: 1
  m_FillClockwise: 1
  m_FillOrigin: 0
  m_UseSpriteMesh: 0
  m_PixelsPerUnitMultiplier: 1
--- !u!222 &1117748292
CanvasRenderer:
  m_ObjectHideFlags: 0
  m_CorrespondingSourceObject: {fileID: 0}
  m_PrefabInstance: {fileID: 0}
  m_PrefabAsset: {fileID: 0}
  m_GameObject: {fileID: 1117748289}
  m_CullTransparentMesh: 0
--- !u!1001 &1191662067
PrefabInstance:
  m_ObjectHideFlags: 0
  serializedVersion: 2
  m_Modification:
    m_TransformParent: {fileID: 1594308569}
    m_Modifications:
    - target: {fileID: 1870938896605422, guid: 835e735ca71bf78459fb2cababd74112, type: 3}
      propertyPath: m_IsActive
      value: 0
      objectReference: {fileID: 0}
    - target: {fileID: 4453513310108136, guid: 835e735ca71bf78459fb2cababd74112, type: 3}
      propertyPath: m_RootOrder
      value: 0
      objectReference: {fileID: 0}
    - target: {fileID: 4453513310108136, guid: 835e735ca71bf78459fb2cababd74112, type: 3}
      propertyPath: m_LocalPosition.x
      value: 0
      objectReference: {fileID: 0}
    - target: {fileID: 4453513310108136, guid: 835e735ca71bf78459fb2cababd74112, type: 3}
      propertyPath: m_LocalPosition.y
      value: 0
      objectReference: {fileID: 0}
    - target: {fileID: 4453513310108136, guid: 835e735ca71bf78459fb2cababd74112, type: 3}
      propertyPath: m_LocalPosition.z
      value: 0
      objectReference: {fileID: 0}
    - target: {fileID: 4453513310108136, guid: 835e735ca71bf78459fb2cababd74112, type: 3}
      propertyPath: m_LocalRotation.w
      value: 1
      objectReference: {fileID: 0}
    - target: {fileID: 4453513310108136, guid: 835e735ca71bf78459fb2cababd74112, type: 3}
      propertyPath: m_LocalRotation.x
      value: 0
      objectReference: {fileID: 0}
    - target: {fileID: 4453513310108136, guid: 835e735ca71bf78459fb2cababd74112, type: 3}
      propertyPath: m_LocalRotation.y
      value: 0
      objectReference: {fileID: 0}
    - target: {fileID: 4453513310108136, guid: 835e735ca71bf78459fb2cababd74112, type: 3}
      propertyPath: m_LocalRotation.z
      value: 0
      objectReference: {fileID: 0}
    - target: {fileID: 114428879332287356, guid: 835e735ca71bf78459fb2cababd74112,
        type: 3}
      propertyPath: HandType
      value: 1
      objectReference: {fileID: 0}
    - target: {fileID: 114567484643301796, guid: 835e735ca71bf78459fb2cababd74112,
        type: 3}
      propertyPath: _skeletonType
      value: 1
      objectReference: {fileID: 0}
    - target: {fileID: 114925265787909616, guid: 835e735ca71bf78459fb2cababd74112,
        type: 3}
      propertyPath: _meshType
      value: 1
      objectReference: {fileID: 0}
    m_RemovedComponents: []
  m_SourcePrefab: {fileID: 100100000, guid: 835e735ca71bf78459fb2cababd74112, type: 3}
--- !u!4 &1191662068 stripped
Transform:
  m_CorrespondingSourceObject: {fileID: 4453513310108136, guid: 835e735ca71bf78459fb2cababd74112,
    type: 3}
  m_PrefabInstance: {fileID: 1191662067}
  m_PrefabAsset: {fileID: 0}
--- !u!1 &1277714290
GameObject:
  m_ObjectHideFlags: 0
  m_CorrespondingSourceObject: {fileID: 162068, guid: ce816f2e6abb0504092c23ed9b970dfd,
    type: 3}
  m_PrefabInstance: {fileID: 0}
  m_PrefabAsset: {fileID: 0}
  serializedVersion: 6
  m_Component:
  - component: {fileID: 1277714291}
  m_Layer: 0
  m_Name: TrackerAnchor
  m_TagString: Untagged
  m_Icon: {fileID: 0}
  m_NavMeshLayer: 0
  m_StaticEditorFlags: 0
  m_IsActive: 1
--- !u!4 &1277714291
Transform:
  m_ObjectHideFlags: 0
  m_CorrespondingSourceObject: {fileID: 462068, guid: ce816f2e6abb0504092c23ed9b970dfd,
    type: 3}
  m_PrefabInstance: {fileID: 0}
  m_PrefabAsset: {fileID: 0}
  m_GameObject: {fileID: 1277714290}
  m_LocalRotation: {x: 0, y: 0, z: 0, w: 1}
  m_LocalPosition: {x: 0, y: 0, z: 0}
  m_LocalScale: {x: 1, y: 1, z: 1}
  m_ConstrainProportionsScale: 0
  m_Children: []
  m_Father: {fileID: 863221866}
  m_RootOrder: 3
  m_LocalEulerAnglesHint: {x: 0, y: 0, z: 0}
--- !u!1001 &1411483269
PrefabInstance:
  m_ObjectHideFlags: 0
  serializedVersion: 2
  m_Modification:
    m_TransformParent: {fileID: 1594308569}
    m_Modifications:
    - target: {fileID: 4766092344323370, guid: e201a24a09e942042b93390d0444d728, type: 3}
      propertyPath: m_RootOrder
      value: 1
      objectReference: {fileID: 0}
    - target: {fileID: 4766092344323370, guid: e201a24a09e942042b93390d0444d728, type: 3}
      propertyPath: m_LocalPosition.x
      value: 0
      objectReference: {fileID: 0}
    - target: {fileID: 4766092344323370, guid: e201a24a09e942042b93390d0444d728, type: 3}
      propertyPath: m_LocalPosition.y
      value: 0
      objectReference: {fileID: 0}
    - target: {fileID: 4766092344323370, guid: e201a24a09e942042b93390d0444d728, type: 3}
      propertyPath: m_LocalPosition.z
      value: 0
      objectReference: {fileID: 0}
    - target: {fileID: 4766092344323370, guid: e201a24a09e942042b93390d0444d728, type: 3}
      propertyPath: m_LocalRotation.w
      value: 1
      objectReference: {fileID: 0}
    - target: {fileID: 4766092344323370, guid: e201a24a09e942042b93390d0444d728, type: 3}
      propertyPath: m_LocalRotation.x
      value: -0
      objectReference: {fileID: 0}
    - target: {fileID: 4766092344323370, guid: e201a24a09e942042b93390d0444d728, type: 3}
      propertyPath: m_LocalRotation.y
      value: -0
      objectReference: {fileID: 0}
    - target: {fileID: 4766092344323370, guid: e201a24a09e942042b93390d0444d728, type: 3}
      propertyPath: m_LocalRotation.z
      value: -0
      objectReference: {fileID: 0}
    - target: {fileID: 114460394679914766, guid: e201a24a09e942042b93390d0444d728,
        type: 3}
      propertyPath: _customBones_V2.Array.data[0]
      value: 
      objectReference: {fileID: 1411483292}
    - target: {fileID: 114460394679914766, guid: e201a24a09e942042b93390d0444d728,
        type: 3}
      propertyPath: _customBones_V2.Array.data[1]
      value: 
      objectReference: {fileID: 1411483293}
    - target: {fileID: 114460394679914766, guid: e201a24a09e942042b93390d0444d728,
        type: 3}
      propertyPath: _customBones_V2.Array.data[2]
      value: 
      objectReference: {fileID: 1411483291}
    - target: {fileID: 114460394679914766, guid: e201a24a09e942042b93390d0444d728,
        type: 3}
      propertyPath: _customBones_V2.Array.data[3]
      value: 
      objectReference: {fileID: 1411483290}
    - target: {fileID: 114460394679914766, guid: e201a24a09e942042b93390d0444d728,
        type: 3}
      propertyPath: _customBones_V2.Array.data[4]
      value: 
      objectReference: {fileID: 1411483289}
    - target: {fileID: 114460394679914766, guid: e201a24a09e942042b93390d0444d728,
        type: 3}
      propertyPath: _customBones_V2.Array.data[5]
      value: 
      objectReference: {fileID: 1411483287}
    - target: {fileID: 114460394679914766, guid: e201a24a09e942042b93390d0444d728,
        type: 3}
      propertyPath: _customBones_V2.Array.data[6]
      value: 
      objectReference: {fileID: 1411483286}
    - target: {fileID: 114460394679914766, guid: e201a24a09e942042b93390d0444d728,
        type: 3}
      propertyPath: _customBones_V2.Array.data[7]
      value: 
      objectReference: {fileID: 1411483285}
    - target: {fileID: 114460394679914766, guid: e201a24a09e942042b93390d0444d728,
        type: 3}
      propertyPath: _customBones_V2.Array.data[8]
      value: 
      objectReference: {fileID: 1411483283}
    - target: {fileID: 114460394679914766, guid: e201a24a09e942042b93390d0444d728,
        type: 3}
      propertyPath: _customBones_V2.Array.data[9]
      value: 
      objectReference: {fileID: 1411483282}
    - target: {fileID: 114460394679914766, guid: e201a24a09e942042b93390d0444d728,
        type: 3}
      propertyPath: _customBones_V2.Array.data[10]
      value: 
      objectReference: {fileID: 1411483281}
    - target: {fileID: 114460394679914766, guid: e201a24a09e942042b93390d0444d728,
        type: 3}
      propertyPath: _customBones_V2.Array.data[11]
      value: 
      objectReference: {fileID: 1411483279}
    - target: {fileID: 114460394679914766, guid: e201a24a09e942042b93390d0444d728,
        type: 3}
      propertyPath: _customBones_V2.Array.data[12]
      value: 
      objectReference: {fileID: 1411483278}
    - target: {fileID: 114460394679914766, guid: e201a24a09e942042b93390d0444d728,
        type: 3}
      propertyPath: _customBones_V2.Array.data[13]
      value: 
      objectReference: {fileID: 1411483277}
    - target: {fileID: 114460394679914766, guid: e201a24a09e942042b93390d0444d728,
        type: 3}
      propertyPath: _customBones_V2.Array.data[14]
      value: 
      objectReference: {fileID: 1411483275}
    - target: {fileID: 114460394679914766, guid: e201a24a09e942042b93390d0444d728,
        type: 3}
      propertyPath: _customBones_V2.Array.data[15]
      value: 
      objectReference: {fileID: 1411483274}
    - target: {fileID: 114460394679914766, guid: e201a24a09e942042b93390d0444d728,
        type: 3}
      propertyPath: _customBones_V2.Array.data[16]
      value: 
      objectReference: {fileID: 1411483273}
    - target: {fileID: 114460394679914766, guid: e201a24a09e942042b93390d0444d728,
        type: 3}
      propertyPath: _customBones_V2.Array.data[17]
      value: 
      objectReference: {fileID: 1411483272}
    - target: {fileID: 114460394679914766, guid: e201a24a09e942042b93390d0444d728,
        type: 3}
      propertyPath: _customBones_V2.Array.data[18]
      value: 
      objectReference: {fileID: 1411483270}
    - target: {fileID: 114460394679914766, guid: e201a24a09e942042b93390d0444d728,
        type: 3}
      propertyPath: _customBones_V2.Array.data[19]
      value: 
      objectReference: {fileID: 1411483288}
    - target: {fileID: 114460394679914766, guid: e201a24a09e942042b93390d0444d728,
        type: 3}
      propertyPath: _customBones_V2.Array.data[20]
      value: 
      objectReference: {fileID: 1411483284}
    - target: {fileID: 114460394679914766, guid: e201a24a09e942042b93390d0444d728,
        type: 3}
      propertyPath: _customBones_V2.Array.data[21]
      value: 
      objectReference: {fileID: 1411483280}
    - target: {fileID: 114460394679914766, guid: e201a24a09e942042b93390d0444d728,
        type: 3}
      propertyPath: _customBones_V2.Array.data[22]
      value: 
      objectReference: {fileID: 1411483276}
    - target: {fileID: 114460394679914766, guid: e201a24a09e942042b93390d0444d728,
        type: 3}
      propertyPath: _customBones_V2.Array.data[23]
      value: 
      objectReference: {fileID: 1411483271}
    m_RemovedComponents: []
  m_SourcePrefab: {fileID: 100100000, guid: e201a24a09e942042b93390d0444d728, type: 3}
--- !u!4 &1411483270 stripped
Transform:
  m_CorrespondingSourceObject: {fileID: 4288470492801480, guid: e201a24a09e942042b93390d0444d728,
    type: 3}
  m_PrefabInstance: {fileID: 1411483269}
  m_PrefabAsset: {fileID: 0}
--- !u!4 &1411483271 stripped
Transform:
  m_CorrespondingSourceObject: {fileID: 4806080251670844, guid: e201a24a09e942042b93390d0444d728,
    type: 3}
  m_PrefabInstance: {fileID: 1411483269}
  m_PrefabAsset: {fileID: 0}
--- !u!4 &1411483272 stripped
Transform:
  m_CorrespondingSourceObject: {fileID: 4147382078780322, guid: e201a24a09e942042b93390d0444d728,
    type: 3}
  m_PrefabInstance: {fileID: 1411483269}
  m_PrefabAsset: {fileID: 0}
--- !u!4 &1411483273 stripped
Transform:
  m_CorrespondingSourceObject: {fileID: 4113251682903106, guid: e201a24a09e942042b93390d0444d728,
    type: 3}
  m_PrefabInstance: {fileID: 1411483269}
  m_PrefabAsset: {fileID: 0}
--- !u!4 &1411483274 stripped
Transform:
  m_CorrespondingSourceObject: {fileID: 4154509707602826, guid: e201a24a09e942042b93390d0444d728,
    type: 3}
  m_PrefabInstance: {fileID: 1411483269}
  m_PrefabAsset: {fileID: 0}
--- !u!4 &1411483275 stripped
Transform:
  m_CorrespondingSourceObject: {fileID: 4711711751280016, guid: e201a24a09e942042b93390d0444d728,
    type: 3}
  m_PrefabInstance: {fileID: 1411483269}
  m_PrefabAsset: {fileID: 0}
--- !u!4 &1411483276 stripped
Transform:
  m_CorrespondingSourceObject: {fileID: 4399338005550382, guid: e201a24a09e942042b93390d0444d728,
    type: 3}
  m_PrefabInstance: {fileID: 1411483269}
  m_PrefabAsset: {fileID: 0}
--- !u!4 &1411483277 stripped
Transform:
  m_CorrespondingSourceObject: {fileID: 4658771346061256, guid: e201a24a09e942042b93390d0444d728,
    type: 3}
  m_PrefabInstance: {fileID: 1411483269}
  m_PrefabAsset: {fileID: 0}
--- !u!4 &1411483278 stripped
Transform:
  m_CorrespondingSourceObject: {fileID: 4150668574442040, guid: e201a24a09e942042b93390d0444d728,
    type: 3}
  m_PrefabInstance: {fileID: 1411483269}
  m_PrefabAsset: {fileID: 0}
--- !u!4 &1411483279 stripped
Transform:
  m_CorrespondingSourceObject: {fileID: 4747889433240038, guid: e201a24a09e942042b93390d0444d728,
    type: 3}
  m_PrefabInstance: {fileID: 1411483269}
  m_PrefabAsset: {fileID: 0}
--- !u!4 &1411483280 stripped
Transform:
  m_CorrespondingSourceObject: {fileID: 4993161326556916, guid: e201a24a09e942042b93390d0444d728,
    type: 3}
  m_PrefabInstance: {fileID: 1411483269}
  m_PrefabAsset: {fileID: 0}
--- !u!4 &1411483281 stripped
Transform:
  m_CorrespondingSourceObject: {fileID: 4430907584103858, guid: e201a24a09e942042b93390d0444d728,
    type: 3}
  m_PrefabInstance: {fileID: 1411483269}
  m_PrefabAsset: {fileID: 0}
--- !u!4 &1411483282 stripped
Transform:
  m_CorrespondingSourceObject: {fileID: 4969639723282940, guid: e201a24a09e942042b93390d0444d728,
    type: 3}
  m_PrefabInstance: {fileID: 1411483269}
  m_PrefabAsset: {fileID: 0}
--- !u!4 &1411483283 stripped
Transform:
  m_CorrespondingSourceObject: {fileID: 4975455595100048, guid: e201a24a09e942042b93390d0444d728,
    type: 3}
  m_PrefabInstance: {fileID: 1411483269}
  m_PrefabAsset: {fileID: 0}
--- !u!4 &1411483284 stripped
Transform:
  m_CorrespondingSourceObject: {fileID: 4001605307124674, guid: e201a24a09e942042b93390d0444d728,
    type: 3}
  m_PrefabInstance: {fileID: 1411483269}
  m_PrefabAsset: {fileID: 0}
--- !u!4 &1411483285 stripped
Transform:
  m_CorrespondingSourceObject: {fileID: 4095757401416052, guid: e201a24a09e942042b93390d0444d728,
    type: 3}
  m_PrefabInstance: {fileID: 1411483269}
  m_PrefabAsset: {fileID: 0}
--- !u!4 &1411483286 stripped
Transform:
  m_CorrespondingSourceObject: {fileID: 4492482335422584, guid: e201a24a09e942042b93390d0444d728,
    type: 3}
  m_PrefabInstance: {fileID: 1411483269}
  m_PrefabAsset: {fileID: 0}
--- !u!4 &1411483287 stripped
Transform:
  m_CorrespondingSourceObject: {fileID: 4636070314650120, guid: e201a24a09e942042b93390d0444d728,
    type: 3}
  m_PrefabInstance: {fileID: 1411483269}
  m_PrefabAsset: {fileID: 0}
--- !u!4 &1411483288 stripped
Transform:
  m_CorrespondingSourceObject: {fileID: 4777317802294454, guid: e201a24a09e942042b93390d0444d728,
    type: 3}
  m_PrefabInstance: {fileID: 1411483269}
  m_PrefabAsset: {fileID: 0}
--- !u!4 &1411483289 stripped
Transform:
  m_CorrespondingSourceObject: {fileID: 4360771558957118, guid: e201a24a09e942042b93390d0444d728,
    type: 3}
  m_PrefabInstance: {fileID: 1411483269}
  m_PrefabAsset: {fileID: 0}
--- !u!4 &1411483290 stripped
Transform:
  m_CorrespondingSourceObject: {fileID: 4846004260786940, guid: e201a24a09e942042b93390d0444d728,
    type: 3}
  m_PrefabInstance: {fileID: 1411483269}
  m_PrefabAsset: {fileID: 0}
--- !u!4 &1411483291 stripped
Transform:
  m_CorrespondingSourceObject: {fileID: 4764752792678808, guid: e201a24a09e942042b93390d0444d728,
    type: 3}
  m_PrefabInstance: {fileID: 1411483269}
  m_PrefabAsset: {fileID: 0}
--- !u!4 &1411483292 stripped
Transform:
  m_CorrespondingSourceObject: {fileID: 4779998117587278, guid: e201a24a09e942042b93390d0444d728,
    type: 3}
  m_PrefabInstance: {fileID: 1411483269}
  m_PrefabAsset: {fileID: 0}
--- !u!4 &1411483293 stripped
Transform:
  m_CorrespondingSourceObject: {fileID: 4867210645376640, guid: e201a24a09e942042b93390d0444d728,
    type: 3}
  m_PrefabInstance: {fileID: 1411483269}
  m_PrefabAsset: {fileID: 0}
--- !u!1 &1444637086
GameObject:
  m_ObjectHideFlags: 0
  m_CorrespondingSourceObject: {fileID: 0}
  m_PrefabInstance: {fileID: 0}
  m_PrefabAsset: {fileID: 0}
  serializedVersion: 6
  m_Component:
  - component: {fileID: 1444637088}
  - component: {fileID: 1444637087}
  - component: {fileID: 1444637089}
  m_Layer: 0
  m_Name: Directional Light
  m_TagString: Untagged
  m_Icon: {fileID: 0}
  m_NavMeshLayer: 0
  m_StaticEditorFlags: 0
  m_IsActive: 1
--- !u!108 &1444637087
Light:
  m_ObjectHideFlags: 0
  m_CorrespondingSourceObject: {fileID: 0}
  m_PrefabInstance: {fileID: 0}
  m_PrefabAsset: {fileID: 0}
  m_GameObject: {fileID: 1444637086}
  m_Enabled: 1
  serializedVersion: 10
  m_Type: 1
  m_Shape: 0
  m_Color: {r: 1, g: 0.95686275, b: 0.8392157, a: 1}
  m_Intensity: 1
  m_Range: 10
  m_SpotAngle: 30
  m_InnerSpotAngle: 21.80208
  m_CookieSize: 10
  m_Shadows:
    m_Type: 2
    m_Resolution: -1
    m_CustomResolution: -1
    m_Strength: 1
    m_Bias: 0.05
    m_NormalBias: 0.4
    m_NearPlane: 0.2
    m_CullingMatrixOverride:
      e00: 1
      e01: 0
      e02: 0
      e03: 0
      e10: 0
      e11: 1
      e12: 0
      e13: 0
      e20: 0
      e21: 0
      e22: 1
      e23: 0
      e30: 0
      e31: 0
      e32: 0
      e33: 1
    m_UseCullingMatrixOverride: 0
  m_Cookie: {fileID: 0}
  m_DrawHalo: 0
  m_Flare: {fileID: 0}
  m_RenderMode: 0
  m_CullingMask:
    serializedVersion: 2
    m_Bits: 4294967295
  m_RenderingLayerMask: 1
  m_Lightmapping: 4
  m_LightShadowCasterMode: 0
  m_AreaSize: {x: 1, y: 1}
  m_BounceIntensity: 1
  m_ColorTemperature: 6570
  m_UseColorTemperature: 0
  m_BoundingSphereOverride: {x: 0, y: 0, z: 0, w: 0}
  m_UseBoundingSphereOverride: 0
  m_UseViewFrustumForShadowCasterCull: 1
  m_ShadowRadius: 0
  m_ShadowAngle: 0
--- !u!4 &1444637088
Transform:
  m_ObjectHideFlags: 0
  m_CorrespondingSourceObject: {fileID: 0}
  m_PrefabInstance: {fileID: 0}
  m_PrefabAsset: {fileID: 0}
  m_GameObject: {fileID: 1444637086}
  m_LocalRotation: {x: 0.40821794, y: -0.23456973, z: 0.109381676, w: 0.87542605}
  m_LocalPosition: {x: 0, y: 3, z: 0}
  m_LocalScale: {x: 1, y: 1, z: 1}
  m_ConstrainProportionsScale: 0
  m_Children: []
  m_Father: {fileID: 0}
  m_RootOrder: 0
  m_LocalEulerAnglesHint: {x: 50, y: -30, z: 0}
--- !u!114 &1444637089
MonoBehaviour:
  m_ObjectHideFlags: 0
  m_CorrespondingSourceObject: {fileID: 0}
  m_PrefabInstance: {fileID: 0}
  m_PrefabAsset: {fileID: 0}
  m_GameObject: {fileID: 1444637086}
  m_Enabled: 1
  m_EditorHideFlags: 0
  m_Script: {fileID: 11500000, guid: 474bcb49853aa07438625e644c072ee6, type: 3}
  m_Name: 
  m_EditorClassIdentifier: 
  m_Version: 1
  m_UsePipelineSettings: 1
  m_AdditionalLightsShadowResolutionTier: 2
  m_LightLayerMask: 1
  m_CustomShadowLayers: 0
  m_ShadowLayerMask: 1
  m_LightCookieSize: {x: 1, y: 1}
  m_LightCookieOffset: {x: 0, y: 0}
--- !u!1 &1445337725
GameObject:
  m_ObjectHideFlags: 0
  m_CorrespondingSourceObject: {fileID: 0}
  m_PrefabInstance: {fileID: 0}
  m_PrefabAsset: {fileID: 0}
  serializedVersion: 6
  m_Component:
  - component: {fileID: 1445337729}
  - component: {fileID: 1445337728}
  - component: {fileID: 1445337727}
  - component: {fileID: 1445337726}
  m_Layer: 0
  m_Name: Cube
  m_TagString: Untagged
  m_Icon: {fileID: 0}
  m_NavMeshLayer: 0
  m_StaticEditorFlags: 0
  m_IsActive: 0
--- !u!23 &1445337726
MeshRenderer:
  m_ObjectHideFlags: 0
  m_CorrespondingSourceObject: {fileID: 0}
  m_PrefabInstance: {fileID: 0}
  m_PrefabAsset: {fileID: 0}
  m_GameObject: {fileID: 1445337725}
  m_Enabled: 1
  m_CastShadows: 1
  m_ReceiveShadows: 1
  m_DynamicOccludee: 1
  m_StaticShadowCaster: 0
  m_MotionVectors: 1
  m_LightProbeUsage: 1
  m_ReflectionProbeUsage: 1
  m_RayTracingMode: 2
  m_RayTraceProcedural: 0
  m_RenderingLayerMask: 1
  m_RendererPriority: 0
  m_Materials:
  - {fileID: 2100000, guid: 62db2d638434d5a488dfb1e789e34b37, type: 2}
  m_StaticBatchInfo:
    firstSubMesh: 0
    subMeshCount: 0
  m_StaticBatchRoot: {fileID: 0}
  m_ProbeAnchor: {fileID: 0}
  m_LightProbeVolumeOverride: {fileID: 0}
  m_ScaleInLightmap: 1
  m_ReceiveGI: 1
  m_PreserveUVs: 1
  m_IgnoreNormalsForChartDetection: 0
  m_ImportantGI: 0
  m_StitchLightmapSeams: 0
  m_SelectedEditorRenderState: 3
  m_MinimumChartSize: 4
  m_AutoUVMaxDistance: 0.5
  m_AutoUVMaxAngle: 89
  m_LightmapParameters: {fileID: 0}
  m_SortingLayerID: 0
  m_SortingLayer: 0
  m_SortingOrder: 0
  m_AdditionalVertexStreams: {fileID: 0}
--- !u!65 &1445337727
BoxCollider:
  m_ObjectHideFlags: 0
  m_CorrespondingSourceObject: {fileID: 0}
  m_PrefabInstance: {fileID: 0}
  m_PrefabAsset: {fileID: 0}
  m_GameObject: {fileID: 1445337725}
  m_Material: {fileID: 0}
  m_IsTrigger: 0
  m_Enabled: 1
  serializedVersion: 2
  m_Size: {x: 1, y: 1, z: 1}
  m_Center: {x: 0, y: 0, z: 0}
--- !u!33 &1445337728
MeshFilter:
  m_ObjectHideFlags: 0
  m_CorrespondingSourceObject: {fileID: 0}
  m_PrefabInstance: {fileID: 0}
  m_PrefabAsset: {fileID: 0}
  m_GameObject: {fileID: 1445337725}
  m_Mesh: {fileID: 10202, guid: 0000000000000000e000000000000000, type: 0}
--- !u!4 &1445337729
Transform:
  m_ObjectHideFlags: 0
  m_CorrespondingSourceObject: {fileID: 0}
  m_PrefabInstance: {fileID: 0}
  m_PrefabAsset: {fileID: 0}
  m_GameObject: {fileID: 1445337725}
  m_LocalRotation: {x: 0, y: 0, z: 0, w: 1}
  m_LocalPosition: {x: 0, y: -5.97, z: 0}
  m_LocalScale: {x: 10, y: 10, z: 10}
  m_ConstrainProportionsScale: 0
  m_Children: []
  m_Father: {fileID: 0}
  m_RootOrder: 1
  m_LocalEulerAnglesHint: {x: 0, y: 0, z: 0}
--- !u!1 &1502660808
GameObject:
  m_ObjectHideFlags: 0
  m_CorrespondingSourceObject: {fileID: 0}
  m_PrefabInstance: {fileID: 0}
  m_PrefabAsset: {fileID: 0}
  serializedVersion: 6
  m_Component:
  - component: {fileID: 1502660809}
  m_Layer: 0
  m_Name: LeftControllerAnchor
  m_TagString: Untagged
  m_Icon: {fileID: 0}
  m_NavMeshLayer: 0
  m_StaticEditorFlags: 0
  m_IsActive: 1
--- !u!4 &1502660809
Transform:
  m_ObjectHideFlags: 0
  m_CorrespondingSourceObject: {fileID: 0}
  m_PrefabInstance: {fileID: 0}
  m_PrefabAsset: {fileID: 0}
  m_GameObject: {fileID: 1502660808}
  m_LocalRotation: {x: 0, y: 0, z: 0, w: 1}
  m_LocalPosition: {x: 0, y: 0, z: 0}
  m_LocalScale: {x: 1, y: 1, z: 1}
  m_ConstrainProportionsScale: 0
  m_Children: []
  m_Father: {fileID: 1594308570}
  m_RootOrder: 1
  m_LocalEulerAnglesHint: {x: 0, y: 0, z: 0}
--- !u!1 &1568687148
GameObject:
  m_ObjectHideFlags: 0
  m_CorrespondingSourceObject: {fileID: 100010, guid: ce816f2e6abb0504092c23ed9b970dfd,
    type: 3}
  m_PrefabInstance: {fileID: 0}
  m_PrefabAsset: {fileID: 0}
  serializedVersion: 6
  m_Component:
  - component: {fileID: 1568687149}
  - component: {fileID: 1568687150}
  - component: {fileID: 1568687151}
  m_Layer: 0
  m_Name: LeftEyeAnchor
  m_TagString: Untagged
  m_Icon: {fileID: 0}
  m_NavMeshLayer: 0
  m_StaticEditorFlags: 0
  m_IsActive: 1
--- !u!4 &1568687149
Transform:
  m_ObjectHideFlags: 0
  m_CorrespondingSourceObject: {fileID: 400010, guid: ce816f2e6abb0504092c23ed9b970dfd,
    type: 3}
  m_PrefabInstance: {fileID: 0}
  m_PrefabAsset: {fileID: 0}
  m_GameObject: {fileID: 1568687148}
  m_LocalRotation: {x: 0, y: 0, z: 0, w: 1}
  m_LocalPosition: {x: 0, y: 0, z: 0}
  m_LocalScale: {x: 1, y: 1, z: 1}
  m_ConstrainProportionsScale: 0
  m_Children: []
  m_Father: {fileID: 863221866}
  m_RootOrder: 0
  m_LocalEulerAnglesHint: {x: 0, y: 0, z: 0}
--- !u!20 &1568687150
Camera:
  m_ObjectHideFlags: 0
  m_CorrespondingSourceObject: {fileID: 0}
  m_PrefabInstance: {fileID: 0}
  m_PrefabAsset: {fileID: 0}
  m_GameObject: {fileID: 1568687148}
  m_Enabled: 0
  serializedVersion: 2
  m_ClearFlags: 1
  m_BackGroundColor: {r: 0.19215687, g: 0.3019608, b: 0.4745098, a: 0}
  m_projectionMatrixMode: 1
  m_GateFitMode: 2
  m_FOVAxisMode: 0
  m_SensorSize: {x: 36, y: 24}
  m_LensShift: {x: 0, y: 0}
  m_FocalLength: 50
  m_NormalizedViewPortRect:
    serializedVersion: 2
    x: 0
    y: 0
    width: 1
    height: 1
  near clip plane: 0.3
  far clip plane: 1000
  field of view: 60
  orthographic: 0
  orthographic size: 5
  m_Depth: 0
  m_CullingMask:
    serializedVersion: 2
    m_Bits: 4294967295
  m_RenderingPath: -1
  m_TargetTexture: {fileID: 0}
  m_TargetDisplay: 0
  m_TargetEye: 1
  m_HDR: 0
  m_AllowMSAA: 1
  m_AllowDynamicResolution: 0
  m_ForceIntoRT: 0
  m_OcclusionCulling: 1
  m_StereoConvergence: 10
  m_StereoSeparation: 0.022
--- !u!114 &1568687151
MonoBehaviour:
  m_ObjectHideFlags: 0
  m_CorrespondingSourceObject: {fileID: 0}
  m_PrefabInstance: {fileID: 0}
  m_PrefabAsset: {fileID: 0}
  m_GameObject: {fileID: 1568687148}
  m_Enabled: 1
  m_EditorHideFlags: 0
  m_Script: {fileID: 11500000, guid: a79441f348de89743a2939f4d699eac1, type: 3}
  m_Name: 
  m_EditorClassIdentifier: 
  m_RenderShadows: 1
  m_RequiresDepthTextureOption: 2
  m_RequiresOpaqueTextureOption: 2
  m_CameraType: 0
  m_Cameras: []
  m_RendererIndex: -1
  m_VolumeLayerMask:
    serializedVersion: 2
    m_Bits: 1
  m_VolumeTrigger: {fileID: 0}
  m_VolumeFrameworkUpdateModeOption: 2
  m_RenderPostProcessing: 0
  m_Antialiasing: 0
  m_AntialiasingQuality: 2
  m_StopNaN: 0
  m_Dithering: 0
  m_ClearDepth: 1
  m_AllowXRRendering: 1
  m_RequiresDepthTexture: 0
  m_RequiresColorTexture: 0
  m_Version: 2
--- !u!4 &1571970907 stripped
Transform:
  m_CorrespondingSourceObject: {fileID: 4927695388962516, guid: c6a74181d4000004887343fb87b3c53a,
    type: 3}
  m_PrefabInstance: {fileID: 1008474975}
  m_PrefabAsset: {fileID: 0}
--- !u!4 &1594308569
Transform:
  m_ObjectHideFlags: 0
  m_CorrespondingSourceObject: {fileID: 481164, guid: ce816f2e6abb0504092c23ed9b970dfd,
    type: 3}
  m_PrefabInstance: {fileID: 0}
  m_PrefabAsset: {fileID: 0}
  m_GameObject: {fileID: 654211503}
  m_LocalRotation: {x: 0, y: 0, z: 0, w: 1}
  m_LocalPosition: {x: 0, y: 0, z: 0}
  m_LocalScale: {x: 1, y: 1, z: 1}
  m_ConstrainProportionsScale: 0
  m_Children:
  - {fileID: 1191662068}
  - {fileID: 865681764}
  - {fileID: 1623181386}
  - {fileID: 747178299}
  m_Father: {fileID: 863221866}
  m_RootOrder: 5
  m_LocalEulerAnglesHint: {x: 0, y: 0, z: 0}
--- !u!4 &1594308570
Transform:
  m_ObjectHideFlags: 0
  m_CorrespondingSourceObject: {fileID: 477154, guid: ce816f2e6abb0504092c23ed9b970dfd,
    type: 3}
  m_PrefabInstance: {fileID: 0}
  m_PrefabAsset: {fileID: 0}
  m_GameObject: {fileID: 432959205}
  m_LocalRotation: {x: 0, y: 0, z: 0, w: 1}
  m_LocalPosition: {x: 0, y: 0, z: 0}
  m_LocalScale: {x: 1, y: 1, z: 1}
  m_ConstrainProportionsScale: 0
  m_Children:
  - {fileID: 312666934}
  - {fileID: 1502660809}
  - {fileID: 1571970907}
  - {fileID: 7611567}
  m_Father: {fileID: 863221866}
  m_RootOrder: 4
  m_LocalEulerAnglesHint: {x: 0, y: 0, z: 0}
--- !u!1 &1594308571
GameObject:
  m_ObjectHideFlags: 0
  m_CorrespondingSourceObject: {fileID: 100004, guid: ce816f2e6abb0504092c23ed9b970dfd,
    type: 3}
  m_PrefabInstance: {fileID: 0}
  m_PrefabAsset: {fileID: 0}
  serializedVersion: 6
  m_Component:
  - component: {fileID: 1594308573}
  - component: {fileID: 1594308576}
  - component: {fileID: 1594308575}
  m_Layer: 0
  m_Name: OVRCameraRig
  m_TagString: Untagged
  m_Icon: {fileID: 0}
  m_NavMeshLayer: 0
  m_StaticEditorFlags: 0
  m_IsActive: 1
--- !u!4 &1594308573
Transform:
  m_ObjectHideFlags: 0
  m_CorrespondingSourceObject: {fileID: 400008, guid: ce816f2e6abb0504092c23ed9b970dfd,
    type: 3}
  m_PrefabInstance: {fileID: 0}
  m_PrefabAsset: {fileID: 0}
  m_GameObject: {fileID: 1594308571}
  m_LocalRotation: {x: 0, y: 0, z: 0, w: 1}
  m_LocalPosition: {x: 0, y: 0, z: 0}
  m_LocalScale: {x: 1, y: 1, z: 1}
  m_ConstrainProportionsScale: 0
  m_Children:
  - {fileID: 863221866}
  m_Father: {fileID: 0}
  m_RootOrder: 2
  m_LocalEulerAnglesHint: {x: 0, y: 0, z: 0}
--- !u!114 &1594308575
MonoBehaviour:
  m_ObjectHideFlags: 0
  m_CorrespondingSourceObject: {fileID: 11400002, guid: ce816f2e6abb0504092c23ed9b970dfd,
    type: 3}
  m_PrefabInstance: {fileID: 0}
  m_PrefabAsset: {fileID: 0}
  m_GameObject: {fileID: 1594308571}
  m_Enabled: 1
  m_EditorHideFlags: 0
  m_Script: {fileID: 11500000, guid: 7e933e81d3c20c74ea6fdc708a67e3a5, type: 3}
  m_Name: 
  m_EditorClassIdentifier: 
  useRecommendedMSAALevel: 0
  _monoscopic: 0
  minRenderScale: 0.7
  maxRenderScale: 1
  _headPoseRelativeOffsetRotation: {x: 0, y: 0, z: 0}
  _headPoseRelativeOffsetTranslation: {x: 0, y: 0, z: 0}
  profilerTcpPort: 32419
  expandMixedRealityCapturePropertySheet: 0
  enableMixedReality: 0
  compositionMethod: 0
  extraHiddenLayers:
    serializedVersion: 2
    m_Bits: 0
  extraVisibleLayers:
    serializedVersion: 2
    m_Bits: 0
  dynamicCullingMask: 1
  externalCompositionBackdropColorRift: {r: 0, g: 1, b: 0, a: 1}
  externalCompositionBackdropColorQuest: {r: 0, g: 0, b: 0, a: 0}
  capturingCameraDevice: 0
  flipCameraFrameHorizontally: 0
  flipCameraFrameVertically: 0
  handPoseStateLatency: 0
  sandwichCompositionRenderLatency: 0
  sandwichCompositionBufferedFrames: 8
  chromaKeyColor: {r: 0, g: 1, b: 0, a: 1}
  chromaKeySimilarity: 0.6
  chromaKeySmoothRange: 0.03
  chromaKeySpillRange: 0.06
  useDynamicLighting: 0
  depthQuality: 1
  dynamicLightingSmoothFactor: 8
  dynamicLightingDepthVariationClampingValue: 0.001
  virtualGreenScreenType: 0
  virtualGreenScreenTopY: 10
  virtualGreenScreenBottomY: -10
  virtualGreenScreenApplyDepthCulling: 0
  virtualGreenScreenDepthTolerance: 0.2
  mrcActivationMode: 0
  isInsightPassthroughEnabled: 0
  _trackingOriginType: 0
  usePositionTracking: 1
  useRotationTracking: 1
  useIPDInPositionTracking: 1
  resetTrackerOnLoad: 1
  AllowRecenter: 1
  LateControllerUpdate: 1
  LateLatching: 0
--- !u!114 &1594308576
MonoBehaviour:
  m_ObjectHideFlags: 0
  m_CorrespondingSourceObject: {fileID: 11400020, guid: ce816f2e6abb0504092c23ed9b970dfd,
    type: 3}
  m_PrefabInstance: {fileID: 0}
  m_PrefabAsset: {fileID: 0}
  m_GameObject: {fileID: 1594308571}
  m_Enabled: 1
  m_EditorHideFlags: 0
  m_Script: {fileID: 11500000, guid: df9f338034892c44ebb62d97894772f1, type: 3}
  m_Name: 
  m_EditorClassIdentifier: 
  usePerEyeCameras: 0
  useFixedUpdateForTracking: 0
  disableEyeAnchorCameras: 0
--- !u!1 &1623181385
GameObject:
  m_ObjectHideFlags: 0
  m_CorrespondingSourceObject: {fileID: 0}
  m_PrefabInstance: {fileID: 0}
  m_PrefabAsset: {fileID: 0}
  serializedVersion: 6
  m_Component:
  - component: {fileID: 1623181386}
  m_Layer: 0
  m_Name: RightControllerAnchor
  m_TagString: Untagged
  m_Icon: {fileID: 0}
  m_NavMeshLayer: 0
  m_StaticEditorFlags: 0
  m_IsActive: 1
--- !u!4 &1623181386
Transform:
  m_ObjectHideFlags: 0
  m_CorrespondingSourceObject: {fileID: 0}
  m_PrefabInstance: {fileID: 0}
  m_PrefabAsset: {fileID: 0}
  m_GameObject: {fileID: 1623181385}
  m_LocalRotation: {x: 0, y: 0, z: 0, w: 1}
  m_LocalPosition: {x: 0, y: 0, z: 0}
  m_LocalScale: {x: 1, y: 1, z: 1}
  m_ConstrainProportionsScale: 0
  m_Children: []
  m_Father: {fileID: 1594308569}
  m_RootOrder: 2
  m_LocalEulerAnglesHint: {x: 0, y: 0, z: 0}
--- !u!1 &1795229447
GameObject:
  m_ObjectHideFlags: 0
  m_CorrespondingSourceObject: {fileID: 100014, guid: ce816f2e6abb0504092c23ed9b970dfd,
    type: 3}
  m_PrefabInstance: {fileID: 0}
  m_PrefabAsset: {fileID: 0}
  serializedVersion: 6
  m_Component:
  - component: {fileID: 1795229448}
  - component: {fileID: 1795229449}
  m_Layer: 0
  m_Name: RightEyeAnchor
  m_TagString: Untagged
  m_Icon: {fileID: 0}
  m_NavMeshLayer: 0
  m_StaticEditorFlags: 0
  m_IsActive: 1
--- !u!4 &1795229448
Transform:
  m_ObjectHideFlags: 0
  m_CorrespondingSourceObject: {fileID: 400014, guid: ce816f2e6abb0504092c23ed9b970dfd,
    type: 3}
  m_PrefabInstance: {fileID: 0}
  m_PrefabAsset: {fileID: 0}
  m_GameObject: {fileID: 1795229447}
  m_LocalRotation: {x: 0, y: 0, z: 0, w: 1}
  m_LocalPosition: {x: 0, y: 0, z: 0}
  m_LocalScale: {x: 1, y: 1, z: 1}
  m_ConstrainProportionsScale: 0
  m_Children: []
  m_Father: {fileID: 863221866}
  m_RootOrder: 2
  m_LocalEulerAnglesHint: {x: 0, y: 0, z: 0}
--- !u!20 &1795229449
Camera:
  m_ObjectHideFlags: 0
  m_CorrespondingSourceObject: {fileID: 0}
  m_PrefabInstance: {fileID: 0}
  m_PrefabAsset: {fileID: 0}
  m_GameObject: {fileID: 1795229447}
  m_Enabled: 0
  serializedVersion: 2
  m_ClearFlags: 1
  m_BackGroundColor: {r: 0.19215687, g: 0.3019608, b: 0.4745098, a: 0}
  m_projectionMatrixMode: 1
  m_GateFitMode: 2
  m_FOVAxisMode: 0
  m_SensorSize: {x: 36, y: 24}
  m_LensShift: {x: 0, y: 0}
  m_FocalLength: 50
  m_NormalizedViewPortRect:
    serializedVersion: 2
    x: 0
    y: 0
    width: 1
    height: 1
  near clip plane: 0.3
  far clip plane: 1000
  field of view: 60
  orthographic: 0
  orthographic size: 5
  m_Depth: 0
  m_CullingMask:
    serializedVersion: 2
    m_Bits: 4294967295
  m_RenderingPath: -1
  m_TargetTexture: {fileID: 0}
  m_TargetDisplay: 0
  m_TargetEye: 2
  m_HDR: 0
  m_AllowMSAA: 1
  m_AllowDynamicResolution: 0
  m_ForceIntoRT: 0
  m_OcclusionCulling: 1
  m_StereoConvergence: 10
  m_StereoSeparation: 0.022
--- !u!1 &2100857858
GameObject:
  m_ObjectHideFlags: 0
  m_CorrespondingSourceObject: {fileID: 0}
  m_PrefabInstance: {fileID: 0}
  m_PrefabAsset: {fileID: 0}
  serializedVersion: 6
  m_Component:
  - component: {fileID: 2100857862}
  - component: {fileID: 2100857861}
  - component: {fileID: 2100857860}
  - component: {fileID: 2100857859}
  m_Layer: 5
  m_Name: Canvas
  m_TagString: Untagged
  m_Icon: {fileID: 0}
  m_NavMeshLayer: 0
  m_StaticEditorFlags: 0
  m_IsActive: 0
--- !u!114 &2100857859
MonoBehaviour:
  m_ObjectHideFlags: 0
  m_CorrespondingSourceObject: {fileID: 0}
  m_PrefabInstance: {fileID: 0}
  m_PrefabAsset: {fileID: 0}
  m_GameObject: {fileID: 2100857858}
  m_Enabled: 1
  m_EditorHideFlags: 0
  m_Script: {fileID: 11500000, guid: dc42784cf147c0c48a680349fa168899, type: 3}
  m_Name: 
  m_EditorClassIdentifier: 
  m_IgnoreReversedGraphics: 1
  m_BlockingObjects: 0
  m_BlockingMask:
    serializedVersion: 2
    m_Bits: 4294967295
--- !u!114 &2100857860
MonoBehaviour:
  m_ObjectHideFlags: 0
  m_CorrespondingSourceObject: {fileID: 0}
  m_PrefabInstance: {fileID: 0}
  m_PrefabAsset: {fileID: 0}
  m_GameObject: {fileID: 2100857858}
  m_Enabled: 1
  m_EditorHideFlags: 0
  m_Script: {fileID: 11500000, guid: 0cd44c1031e13a943bb63640046fad76, type: 3}
  m_Name: 
  m_EditorClassIdentifier: 
  m_UiScaleMode: 0
  m_ReferencePixelsPerUnit: 100
  m_ScaleFactor: 1
  m_ReferenceResolution: {x: 800, y: 600}
  m_ScreenMatchMode: 0
  m_MatchWidthOrHeight: 0
  m_PhysicalUnit: 3
  m_FallbackScreenDPI: 96
  m_DefaultSpriteDPI: 96
  m_DynamicPixelsPerUnit: 1
  m_PresetInfoIsWorld: 0
--- !u!223 &2100857861
Canvas:
  m_ObjectHideFlags: 0
  m_CorrespondingSourceObject: {fileID: 0}
  m_PrefabInstance: {fileID: 0}
  m_PrefabAsset: {fileID: 0}
  m_GameObject: {fileID: 2100857858}
  m_Enabled: 1
  serializedVersion: 3
  m_RenderMode: 2
  m_Camera: {fileID: 0}
  m_PlaneDistance: 100
  m_PixelPerfect: 0
  m_ReceivesEvents: 1
  m_OverrideSorting: 0
  m_OverridePixelPerfect: 0
  m_SortingBucketNormalizedSize: 0
  m_AdditionalShaderChannelsFlag: 25
  m_SortingLayerID: 0
  m_SortingOrder: 0
  m_TargetDisplay: 0
--- !u!224 &2100857862
RectTransform:
  m_ObjectHideFlags: 0
  m_CorrespondingSourceObject: {fileID: 0}
  m_PrefabInstance: {fileID: 0}
  m_PrefabAsset: {fileID: 0}
  m_GameObject: {fileID: 2100857858}
  m_LocalRotation: {x: 0, y: 0, z: 0, w: 1}
  m_LocalPosition: {x: 0, y: 0, z: 1}
  m_LocalScale: {x: 0.01, y: 0.01, z: 0.01}
  m_ConstrainProportionsScale: 0
  m_Children:
  - {fileID: 1117748290}
  - {fileID: 265337588}
  m_Father: {fileID: 358702057}
  m_RootOrder: 0
  m_LocalEulerAnglesHint: {x: 0, y: 0, z: 0}
  m_AnchorMin: {x: 0, y: 0}
  m_AnchorMax: {x: 0, y: 0}
  m_AnchoredPosition: {x: 0, y: 0}
  m_SizeDelta: {x: 100, y: 125}
  m_Pivot: {x: 0.5, y: 0.5}
